%!PS-Adobe-3.0 EPSF-3.0
%%Creator: SM
%%BoundingBox: 18 144 592 570
%%DocumentNeededResources: font Helvetica
%%LanguageLevel: 1
%%Pages: 1
%%EndComments
%%Page: 1 1
 20 dict begin
72 300 div dup scale
1 setlinejoin 0 setlinecap
/Helvetica findfont 55 scalefont setfont 
/B {CS newpath moveto} def
/F {moveto 0 setlinecap} def
/C {CS M 1 1 3 {pop 3 1 roll 255 div} for SET_COLOUR} def
/CS {currentpoint stroke} def
/CF {currentpoint eofill} def
/L {lineto} def /l {rlineto} def /M {moveto} def /m {rmoveto} def
/P {gsave 0 1 rlineto stroke grestore} def
/T {currentlinecap exch 1 setlinecap show setlinecap} def
errordict /nocurrentpoint {pop 0 0 M currentpoint} put
/SET_COLOUR statusdict begin /processcolors where
  {pop processcolors 1 gt} {false} ifelse
  {(setrgbcolor)} {(pop pop pop)} ifelse cvx end def
 80 600 translate
gsave
CS [] 0 setdash M
CS M 3 100 mul 72 div dup setlinewidth
/P [ /gsave cvx 0 5 -1 roll .05 add dup -2 div 0 exch /rmoveto cvx /rlineto cvx /stroke cvx /grestore cvx ] cvx def
 0 0 255 C
CS [] 0 setdash M
CS M 1 100 mul 72 div dup setlinewidth
/P [ /gsave cvx 0 5 -1 roll .05 add dup -2 div 0 exch /rmoveto cvx /rlineto cvx /stroke cvx /grestore cvx ] cvx def
 0 0 0 C
CS M 3 100 mul 72 div dup setlinewidth
/P [ /gsave cvx 0 5 -1 roll .05 add dup -2 div 0 exch /rmoveto cvx /rlineto cvx /stroke cvx /grestore cvx ] cvx def
CS [] 0 setdash M
328 255 M 1970 0 l
0 1423 l
328 1678 L
328 255 L
1970 0 l
328 255 M 1970 0 l
 0 0 0 C
 0 0 0 C
 0 0 0 C
 0 0 0 C
328 255 M 0 55 l
110 -55 m 0 28 l
109 -28 m 0 28 l
109 -28 m 0 28 l
110 -28 m 0 28 l
109 -28 m 0 55 l
110 -55 m 0 28 l
109 -28 m 0 28 l
109 -28 m 0 28 l
110 -28 m 0 28 l
109 -28 m 0 55 l
110 -55 m 0 28 l
109 -28 m 0 28 l
109 -28 m 0 28 l
110 -28 m 0 28 l
109 -28 m 0 55 l
110 -55 m 0 28 l
109 -28 m 0 28 l
110 -28 m 0 28 l
328 1678 M 1970 0 l
 0 0 0 C
 0 0 0 C
 0 0 0 C
 0 0 0 C
328 1678 M 0 -55 l
110 55 m 0 -28 l
109 28 m 0 -28 l
109 28 m 0 -28 l
110 28 m 0 -28 l
109 28 m 0 -55 l
110 55 m 0 -28 l
109 28 m 0 -28 l
109 28 m 0 -28 l
110 28 m 0 -28 l
109 28 m 0 -55 l
110 55 m 0 -28 l
109 28 m 0 -28 l
109 28 m 0 -28 l
110 28 m 0 -28 l
109 28 m 0 -55 l
110 55 m 0 -28 l
109 28 m 0 -28 l
110 28 m 0 -28 l
328 255 M 0 1423 l
328 276 M 55 0 l
-55 324 m 28 0 l
-28 0 m 55 0 l
-55 49 m 28 0 l
-28 55 m 55 0 l
-55 63 m 28 0 l
-28 72 m 55 0 l
-55 85 m 28 0 l
-28 105 m 55 0 l
-55 134 m 28 0 l
-28 190 m 55 0 l
-55 325 m 28 0 l
-28 0 m 55 0 l
2298 255 M 0 1423 l
2298 276 M -55 0 l
55 324 m -28 0 l
28 0 m -55 0 l
55 49 m -28 0 l
28 55 m -55 0 l
55 63 m -28 0 l
28 72 m -55 0 l
55 85 m -28 0 l
28 105 m -55 0 l
55 134 m -28 0 l
28 190 m -55 0 l
55 325 m -28 0 l
28 0 m -55 0 l
CS [] 0 setdash M
CS M 2 100 mul 72 div dup setlinewidth
/P [ /gsave cvx 0 5 -1 roll .05 add dup -2 div 0 exch /rmoveto cvx /rlineto cvx /stroke cvx /grestore cvx ] cvx def
CS [] 0 setdash M
328 255 M 1970 0 l
0 1423 l
328 1678 L
328 255 L
1970 0 l
328 255 M 1970 0 l
 0 0 0 C
 0 0 0 C
 0 0 0 C
 0 0 0 C
328 255 M 0 55 l
 0 0 0 C
303 155 M 23 54 m -8 -3 l
-5 -8 l
-3 -13 l
0 -7 l
3 -13 l
5 -8 l
8 -2 l
5 0 l
7 2 l
6 8 l
2 13 l
0 7 l
-2 13 l
-6 8 l
-7 3 l
-5 0 l
-6 -3 l
-2 -3 l
-3 -5 l
-2 -13 l
0 -7 l
2 -13 l
3 -5 l
2 -3 l
6 -2 l
5 0 m 5 2 l
2 3 l
3 5 l
3 13 l
0 7 l
-3 13 l
-3 5 l
-2 3 l
-5 3 l
 0 0 0 C
107 46 m 0 28 l
109 -28 m 0 28 l
109 -28 m 0 28 l
110 -28 m 0 28 l
109 -28 m 0 55 l
 0 0 0 C
850 155 M 15 43 m 5 3 l
8 8 l
0 -54 l
-3 51 m 0 -51 l
-10 0 m 23 0 l
 0 0 0 C
97 100 m 0 28 l
109 -28 m 0 28 l
109 -28 m 0 28 l
110 -28 m 0 28 l
109 -28 m 0 55 l
 0 0 0 C
1397 155 M 10 43 m 2 -2 l
-2 -3 l
-3 3 l
0 2 l
3 5 l
2 3 l
8 3 l
10 0 l
8 -3 l
3 -3 l
2 -5 l
0 -5 l
-2 -5 l
-8 -5 l
-13 -5 l
-5 -3 l
-5 -5 l
-3 -8 l
0 -7 l
23 54 m 5 -3 l
3 -3 l
3 -5 l
0 -5 l
-3 -5 l
-8 -5 l
-10 -5 l
-13 -18 m 3 2 l
5 0 l
13 -5 l
7 0 l
6 3 l
2 2 l
-28 0 m 13 -7 l
10 0 l
3 2 l
2 5 l
0 6 l
 0 0 0 C
92 87 m 0 28 l
109 -28 m 0 28 l
109 -28 m 0 28 l
110 -28 m 0 28 l
109 -28 m 0 55 l
 0 0 0 C
1944 155 M 10 43 m 2 -2 l
-2 -3 l
-3 3 l
0 2 l
3 5 l
2 3 l
8 3 l
10 0 l
8 -3 l
3 -5 l
0 -8 l
-3 -5 l
-8 -3 l
-7 0 l
7 24 m 6 -3 l
2 -5 l
0 -8 l
-2 -5 l
-6 -3 l
6 -2 l
5 -5 l
2 -5 l
0 -8 l
-2 -5 l
-3 -3 l
-8 -2 l
-10 0 l
-8 2 l
-2 3 l
-3 5 l
0 3 l
3 2 l
2 -2 l
-2 -3 l
28 15 m 3 -7 l
0 -8 l
-3 -5 l
-2 -3 l
-6 -2 l
 0 0 0 C
105 100 m 0 28 l
109 -28 m 0 28 l
110 -28 m 0 28 l
328 1678 M 1970 0 l
 0 0 0 C
 0 0 0 C
 0 0 0 C
 0 0 0 C
328 1678 M 0 -55 l
110 55 m 0 -28 l
109 28 m 0 -28 l
109 28 m 0 -28 l
110 28 m 0 -28 l
109 28 m 0 -55 l
110 55 m 0 -28 l
109 28 m 0 -28 l
109 28 m 0 -28 l
110 28 m 0 -28 l
109 28 m 0 -55 l
110 55 m 0 -28 l
109 28 m 0 -28 l
109 28 m 0 -28 l
110 28 m 0 -28 l
109 28 m 0 -55 l
110 55 m 0 -28 l
109 28 m 0 -28 l
110 28 m 0 -28 l
328 255 M 0 1423 l
328 276 M 55 0 l
 0 0 0 C
179 249 M 10 43 m 3 -2 l
-3 -3 l
-3 3 l
0 2 l
3 6 l
3 2 l
7 3 l
11 0 l
7 -3 l
3 -2 l
2 -6 l
0 -5 l
-2 -5 l
-8 -5 l
-13 -5 l
-5 -3 l
-5 -5 l
-3 -8 l
0 -7 l
24 54 m 5 -3 l
2 -2 l
3 -6 l
0 -5 l
-3 -5 l
-7 -5 l
-11 -5 l
-13 -18 m 3 2 l
5 0 l
13 -5 l
8 0 l
5 3 l
2 2 l
-28 0 m 13 -7 l
10 0 l
3 2 l
2 5 l
0 6 l
31 41 m -7 -3 l
-6 -8 l
-2 -12 l
0 -8 l
2 -13 l
6 -8 l
7 -2 l
5 0 l
8 2 l
5 8 l
3 13 l
0 8 l
-3 12 l
-5 8 l
-8 3 l
-5 0 l
-5 -3 l
-2 -2 l
-3 -6 l
-3 -12 l
0 -8 l
3 -13 l
3 -5 l
2 -3 l
5 -2 l
5 0 m 6 2 l
2 3 l
3 5 l
CS M
2 13 l
0 8 l
-2 12 l
-3 6 l
-2 2 l
-6 3 l
 0 0 0 C
70 297 m 28 0 l
-28 0 m 55 0 l
 0 0 0 C
179 573 M 15 44 m 5 2 l
8 8 l
0 -54 l
-2 51 m 0 -51 l
-11 0 m 23 0 l
36 54 m -7 -3 l
-6 -7 l
-2 -13 l
0 -8 l
2 -13 l
6 -7 l
7 -3 l
5 0 l
8 3 l
5 7 l
3 13 l
0 8 l
-3 13 l
-5 7 l
-8 3 l
-5 0 l
-5 -3 l
-2 -2 l
-3 -5 l
-3 -13 l
0 -8 l
3 -13 l
3 -5 l
2 -2 l
5 -3 l
5 0 m 6 3 l
2 2 l
3 5 l
2 13 l
0 8 l
-2 13 l
-3 5 l
-2 2 l
-6 3 l
 0 0 0 C
70 22 m 28 0 l
-28 55 m 55 0 l
 0 0 0 C
-153 -26 m 21 53 m -8 -2 l
-3 -5 l
0 -8 l
3 -5 l
8 -3 l
10 0 l
8 3 l
2 5 l
0 8 l
-2 5 l
-8 2 l
-10 0 l
-5 -2 l
-3 -5 l
0 -8 l
3 -5 l
5 -3 l
10 0 m 5 3 l
3 5 l
0 8 l
-3 5 l
-5 2 l
-10 -23 m -8 -2 l
-3 -3 l
-2 -5 l
0 -10 l
2 -5 l
3 -3 l
8 -2 l
10 0 l
8 2 l
2 3 l
3 5 l
0 10 l
-3 5 l
-2 3 l
-8 2 l
-10 0 m -5 -2 l
-3 -3 l
-3 -5 l
0 -10 l
3 -5 l
3 -3 l
5 -2 l
10 0 m 5 2 l
3 3 l
2 5 l
0 10 l
-2 5 l
-3 3 l
-5 2 l
 0 0 0 C
67 59 m 28 0 l
-28 72 m 55 0 l
 0 0 0 C
-153 -27 m 39 46 m -3 -2 l
3 -3 l
2 3 l
0 2 l
-2 6 l
-5 2 l
-8 0 l
-8 -2 l
-5 -6 l
-3 -5 l
-2 -10 l
0 -15 l
2 -8 l
6 -5 l
7 -3 l
5 0 l
8 3 l
5 5 l
3 8 l
0 2 l
-3 8 l
-5 5 l
-8 2 l
-2 0 l
-8 -2 l
-5 -5 l
-3 -8 l
16 36 m -5 -2 l
-5 -6 l
-3 -5 l
-3 -10 l
0 -15 l
3 -8 l
5 -5 l
5 -3 l
5 0 m 6 3 l
5 5 l
2 8 l
0 2 l
-2 8 l
-5 5 l
-6 2 l
 0 0 0 C
70 79 m 28 0 l
-28 105 m 55 0 l
 0 0 0 C
-153 -27 m 31 49 m 0 -49 l
3 54 m 0 -54 l
0 54 m -29 -39 l
41 0 l
-23 -15 m 18 0 l
 0 0 0 C
57 161 m 28 0 l
-28 190 m 55 0 l
 0 0 0 C
-153 -27 m 10 44 m 3 -3 l
-3 -2 l
-2 2 l
0 3 l
2 5 l
3 3 l
8 2 l
10 0 l
8 -2 l
2 -3 l
3 -5 l
0 -5 l
-3 -5 l
-7 -6 l
-13 -5 l
-5 -2 l
-6 -5 l
-2 -8 l
0 -8 l
23 54 m 5 -2 l
3 -3 l
2 -5 l
0 -5 l
-2 -5 l
-8 -6 l
-10 -5 l
-13 -18 m 2 3 l
6 0 l
12 -5 l
8 0 l
5 2 l
3 3 l
-28 0 m 12 -8 l
11 0 l
2 3 l
3 5 l
0 5 l
 0 0 0 C
54 339 m 28 0 l
-28 0 m 55 0 l
 0 0 0 C
-153 -27 m 16 43 m 5 3 l
7 7 l
0 -53 l
-2 51 m 0 -51 l
-10 0 m 23 0 l
 0 0 0 C
2298 255 M 0 1423 l
2298 276 M -55 0 l
55 324 m -28 0 l
28 0 m -55 0 l
55 49 m -28 0 l
28 55 m -55 0 l
55 63 m -28 0 l
28 72 m -55 0 l
55 85 m -28 0 l
28 105 m -55 0 l
55 134 m -28 0 l
28 190 m -55 0 l
55 325 m -28 0 l
28 0 m -55 0 l
CS [] 0 setdash M
CS [] 0 setdash M
 0 0 0 C
1133 54 M 13 54 m 1146 54 L
3 54 m 1149 54 L
-11 54 m 31 0 l
8 -3 l
2 -2 l
3 -5 l
0 -5 l
-3 -6 l
-2 -2 l
-8 -3 l
-20 0 l
20 26 m 5 -3 l
3 -2 l
2 -5 l
0 -5 l
-2 -6 l
-3 -2 l
-5 -3 l
-31 -28 m 18 0 l
5 28 m 5 -2 l
3 -3 l
8 -18 l
2 -2 l
3 0 l
2 2 l
-18 21 m 3 -5 l
5 -18 l
3 -3 l
5 0 l
2 5 l
0 3 l
16 13 m 31 0 l
0 5 l
-3 5 l
-3 2 l
-5 3 l
-7 0 l
-8 -3 l
-5 -5 l
-3 -7 l
0 -5 l
3 -8 l
5 -5 l
8 -3 l
5 0 l
7 3 l
6 5 l
-3 13 m 0 7 l
-3 5 l
-12 3 m -5 -3 l
-6 -5 l
-2 -7 l
0 -5 l
2 -8 l
6 -5 l
5 -3 l
64 54 m 1277 54 L
2 54 m 1279 54 L
-2 28 m -5 5 l
-5 3 l
-6 0 l
-7 -3 l
-5 -5 l
-3 -7 l
0 -5 l
3 -8 l
5 -5 l
7 -3 l
6 0 l
5 3 l
5 5 l
-16 28 m -5 -3 l
-5 -5 l
-2 -7 l
0 -5 l
2 -8 l
5 -5 l
5 -3 l
8 54 m 10 0 l
1277 54 M 10 0 l
39 31 m 2 5 l
0 -10 l
-2 5 l
-3 2 l
-5 3 l
-10 0 l
-6 -3 l
-2 -2 l
0 -5 l
CS M
2 -3 l
6 -2 l
12 -5 l
6 -3 l
2 -3 l
-28 18 m 2 -2 l
6 -3 l
12 -5 l
6 -2 l
2 -3 l
0 -8 l
-2 -2 l
-6 -3 l
-10 0 l
-5 3 l
-3 2 l
-2 5 l
0 -10 l
2 5 l
47 49 m 1349 54 L
2 54 m 1351 54 L
0 28 m 5 5 l
8 3 l
5 0 l
8 -3 l
2 -5 l
0 -28 l
-10 36 m 5 -3 l
3 -5 l
0 -28 l
-36 54 m 10 0 l
1341 54 M 18 0 l
10 0 m 18 0 l
18 54 m -2 -3 l
2 -2 l
3 2 l
-3 3 l
0 -18 m 0 -36 l
3 36 m 0 -36 l
-11 36 m 11 0 l
-11 -36 m 18 0 l
31 51 m -2 -2 l
2 -3 l
3 3 l
0 2 l
-3 3 l
-5 0 l
-5 -3 l
-3 -5 l
0 -46 l
8 54 m -3 -3 l
-2 -5 l
0 -46 l
-10 36 m 20 0 l
-20 -36 m 18 0 l
23 54 m 0 -44 l
2 -7 l
5 -3 l
6 0 l
5 3 l
2 5 l
-18 46 m 0 -44 l
3 -7 l
2 -3 l
-15 36 m 21 0 l
 0 0 0 C
CS [] 0 setdash M
CS [] 0 setdash M
 0 0 0 C
 0 0 0 C
 0 0 0 C
108 378 M 54 390 M 54 0 l
54 393 M 54 0 l
-39 15 m 21 0 l
-36 -25 m 0 41 l
15 0 l
-15 -3 l
25 -28 m 0 15 l
29 -25 m 0 41 l
-16 0 l
16 -3 l
-36 23 m 36 0 l
-36 3 m 36 0 l
-21 0 m -8 2 l
-5 5 l
-2 6 l
0 7 l
2 3 l
3 0 l
2 -3 l
-2 -2 l
-3 2 l
-2 -30 m 0 10 l
36 -10 m 0 17 l
-36 34 m 36 0 l
-36 2 m 36 0 l
-21 0 m -8 3 l
-5 5 l
-2 5 l
0 8 l
2 3 l
3 0 l
2 -3 l
-2 -3 l
-3 3 l
-2 -31 m 0 10 l
36 -10 m 0 18 l
-36 44 m 2 -8 l
5 -5 l
8 -3 l
5 0 l
8 3 l
5 5 l
3 8 l
0 5 l
-3 8 l
-5 5 l
-8 2 l
-5 0 l
-8 -2 l
-5 -5 l
-2 -8 l
0 -5 l
2 -5 l
5 -6 l
8 -2 l
5 0 l
8 2 l
5 6 l
3 5 l
0 5 m -3 5 l
-5 5 l
-8 3 l
-5 0 l
-8 -3 l
-5 -5 l
-2 -5 l
0 36 m 36 0 l
-36 2 m 36 0 l
-21 0 m -8 3 l
-5 5 l
-2 5 l
0 8 l
2 3 l
3 0 l
2 -3 l
-2 -3 l
-3 3 l
-2 -31 m 0 10 l
36 -10 m 0 18 l
-36 85 m 2 -8 l
5 -5 l
8 -3 l
5 0 l
8 3 l
5 5 l
3 8 l
0 5 l
-3 8 l
-5 5 l
-8 2 l
-5 0 l
-8 -2 l
-5 -5 l
-2 -8 l
0 -5 l
2 -5 l
5 -5 l
8 -3 l
5 0 l
8 3 l
5 5 l
3 5 l
0 5 m -3 5 l
-5 5 l
-8 3 l
-5 0 l
-8 -3 l
-5 -5 l
-2 -5 l
0 36 m 36 0 l
-36 2 m 36 0 l
-29 0 m -5 6 l
-2 7 l
0 5 l
2 8 l
5 3 l
29 0 l
-36 -11 m 2 6 l
5 2 l
29 0 l
-36 -36 m 0 10 l
36 -10 m 0 18 l
0 10 m 0 18 l
54 816 M 54 0 l
54 819 M 54 0 l
54 809 M 0 10 l
54 -10 m 0 18 l
-36 18 m 36 0 l
-36 2 m 36 0 l
-29 0 m -5 5 l
-2 8 l
0 5 l
2 8 l
5 2 l
29 0 l
-36 -10 m 2 5 l
5 3 l
29 0 l
-36 -36 m 0 10 l
36 -10 m 0 18 l
0 10 m 0 18 l
43 916 M 6 -5 l
7 -5 l
10 -5 l
13 -3 l
11 0 l
12 3 l
11 5 l
7 5 l
6 5 l
49 911 M 10 -5 l
7 -2 l
13 -3 l
11 0 l
12 3 l
8 2 l
10 5 l
-25 23 m 7 3 l
3 3 l
3 5 l
0 5 l
-3 7 l
-8 6 l
-7 2 l
-8 0 l
-5 -2 l
-3 -3 l
-2 -5 l
0 -5 l
2 -8 l
8 -5 l
8 -3 l
36 -10 l
-18 26 m -3 5 l
-8 5 l
-7 3 l
-11 0 l
-5 -3 l
-2 -10 m 2 -5 l
8 -5 l
8 -3 l
36 -10 l
 0 0 0 C
-26 53 m 32 0 l
-32 2 m 32 0 l
-32 -6 m 0 15 l
1 5 l
3 3 l
4 2 l
4 1 l
8 0 l
5 -1 l
3 -2 l
3 -3 l
1 -5 l
0 -15 l
-32 15 m 1 3 l
3 3 l
4 2 l
4 2 l
8 0 l
5 -2 l
3 -2 l
3 -3 l
1 -3 l
-32 23 m 32 0 l
-32 2 m 32 0 l
-23 9 m 12 0 l
-21 -15 m 0 24 l
9 0 l
-9 -1 l
15 -17 m 0 9 l
17 -15 m 0 24 l
-9 0 l
9 -1 l
 0 0 0 C
43 1047 M 6 5 l
7 5 l
10 5 l
13 3 l
11 0 l
12 -3 l
11 -5 l
7 -5 l
6 -5 l
49 1052 M 10 5 l
7 2 l
13 3 l
11 0 l
12 -3 l
8 -2 l
10 -5 l
-43 77 m 2 0 l
0 -3 l
-2 0 l
-3 3 l
-2 5 l
CS M
0 10 l
2 5 l
3 3 l
5 2 l
18 0 l
5 3 l
3 3 l
-31 -8 m 23 0 l
5 2 l
3 6 l
0 2 l
-26 -10 m 2 -3 l
3 -15 l
3 -8 l
5 -2 l
5 0 l
5 2 l
3 8 l
0 8 l
-3 5 l
-5 5 l
-13 -18 m 3 -5 l
5 -3 l
5 0 l
5 3 l
3 5 l
-36 46 m 36 0 l
-36 3 m 36 0 l
-29 0 m -5 5 l
-2 8 l
0 5 l
2 7 l
5 3 l
29 0 l
-36 -10 m 2 5 l
5 2 l
29 0 l
-36 -36 m 0 11 l
36 -11 m 0 18 l
0 11 m 0 18 l
54 1262 M 54 0 l
54 1265 M 54 0 l
-29 -3 m -5 -5 l
-2 -5 l
0 -5 l
2 -8 l
5 -5 l
8 -3 l
5 0 l
8 3 l
5 5 l
3 8 l
0 5 l
-3 5 l
-5 5 l
-28 -15 m 2 -5 l
5 -5 l
8 -3 l
5 0 l
8 3 l
5 5 l
3 5 l
54 1255 M 0 10 l
54 -3 m 0 10 l
-36 57 m 36 10 l
-36 -7 m 28 7 l
-28 10 m 36 -10 l
-36 10 m 36 11 l
-36 -8 m 28 8 l
-28 10 m 36 -10 l
-36 -39 m 0 18 l
0 23 m 0 16 l
-29 72 m 6 -6 l
7 -5 l
10 -5 l
13 -2 l
11 0 l
12 2 l
11 5 l
7 5 l
6 6 l
49 1444 M 10 -5 l
7 -2 l
13 -3 l
11 0 l
12 3 l
8 2 l
10 5 l
54 1511 M 54 -46 l
54 1478 M 5 5 l
5 0 l
5 -3 l
3 -5 l
0 -5 l
-6 -5 l
-5 0 l
-5 2 l
-2 6 l
0 5 l
2 5 l
3 8 l
0 7 l
-3 8 l
-2 5 l
36 -10 m 2 -5 l
5 -3 l
5 0 l
6 5 l
0 5 l
-3 6 l
-5 2 l
-5 0 l
-5 -5 l
0 -5 l
43 1526 M 6 6 l
7 5 l
10 5 l
13 2 l
11 0 l
12 -2 l
11 -5 l
7 -5 l
6 -6 l
49 1532 M 10 5 l
7 2 l
13 3 l
11 0 l
12 -3 l
8 -2 l
10 -5 l
 0 0 0 C
CS [] 0 setdash M
1696 492 M CS [] 0 setdash M
 0 0 0 C
1326 474 M 13 54 m 0 -54 l
2 54 m 0 -54 l
16 39 m 0 -21 l
-26 36 m 41 0 l
0 -15 l
-2 15 l
-29 -26 m 16 0 l
-26 -28 m 18 0 l
41 36 m 0 -28 l
3 -5 l
7 -3 l
6 0 l
7 3 l
5 5 l
-25 28 m 0 -28 l
2 -5 l
5 -3 l
18 36 m 0 -36 l
3 36 m 0 -36 l
-38 36 m 10 0 l
18 0 m 10 0 l
-3 -36 m 11 0 l
18 54 m 0 -54 l
2 54 m 0 -54 l
-10 54 m 10 0 l
-10 -54 m 18 0 l
18 54 m 0 -54 l
2 54 m 0 -54 l
-10 54 m 10 0 l
-10 -54 m 18 0 l
16 23 m 46 0 l
43 8 m 3 5 l
0 -10 l
-3 5 l
-2 3 l
-5 2 l
-11 0 l
-5 -2 l
-2 -3 l
0 -5 l
2 -3 l
5 -2 l
13 -5 l
5 -3 l
3 -3 l
-28 18 m 2 -2 l
5 -3 l
13 -5 l
5 -2 l
3 -3 l
0 -8 l
-3 -2 l
-5 -3 l
-10 0 l
-5 3 l
-3 2 l
-2 5 l
0 -10 l
2 5 l
47 49 m 0 -54 l
2 54 m 0 -54 l
26 36 m -26 -26 l
13 11 m 15 -21 l
-18 21 m 16 -21 l
-36 54 m 10 0 l
18 -18 m 15 0 l
-43 -36 m 18 0 l
10 0 m 15 0 l
16 36 m 15 -36 l
-13 36 m 13 -31 l
16 31 m -16 -36 l
-5 -10 l
-5 -5 l
-5 -3 l
-3 0 l
-2 3 l
2 2 l
3 -2 l
-5 51 m 15 0 l
10 0 m 16 0 l
56 18 m 0 -54 l
3 54 m 0 -54 l
15 39 m 0 -21 l
-26 36 m 42 0 l
0 -15 l
-3 15 l
-28 -26 m 15 0 l
-26 -28 m 42 0 l
0 16 l
-3 -16 l
23 36 m 0 -36 l
3 36 m 0 -36 l
0 21 m 2 7 l
5 6 l
5 2 l
8 0 l
3 -2 l
0 -3 l
-3 -3 l
-2 3 l
2 3 l
-31 2 m 11 0 l
-11 -36 m 18 0 l
34 36 m 0 -36 l
2 36 m 0 -36 l
0 21 m 3 7 l
5 6 l
5 2 l
8 0 l
2 -2 l
0 -3 l
-2 -3 l
-3 3 l
3 3 l
-31 2 m 10 0 l
-10 -36 m 18 0 l
44 36 m -8 -2 l
-5 -6 l
-3 -7 l
0 -5 l
3 -8 l
5 -5 l
8 -3 l
5 0 l
7 3 l
6 5 l
2 8 l
0 5 l
-2 7 l
-6 6 l
-7 2 l
-5 0 l
-6 -2 l
-5 -6 l
-2 -7 l
0 -5 l
2 -8 l
5 -5 l
6 -3 l
5 0 m 5 3 l
5 5 l
3 8 l
0 5 l
-3 7 l
-5 6 l
-5 2 l
36 0 m 0 -36 l
2 36 m 0 -36 l
0 21 m 3 7 l
5 6 l
5 2 l
8 0 l
2 -2 l
0 -3 l
-2 -3 l
-3 3 l
3 3 l
-31 2 m 10 0 l
-10 -36 m 18 0 l
54 31 m 2 5 l
0 -10 l
-2 5 l
-3 3 l
-5 2 l
-10 0 l
-5 -2 l
-3 -3 l
0 -5 l
3 -3 l
5 -2 l
CS M
13 -5 l
5 -3 l
2 -3 l
-28 18 m 3 -2 l
5 -3 l
13 -5 l
5 -2 l
2 -3 l
0 -8 l
-2 -2 l
-5 -3 l
-11 0 l
-5 3 l
-2 2 l
-3 5 l
0 -10 l
3 5 l
 0 0 0 C
74 -5 m CS [] 0 setdash M
1696 385 M CS [] 0 setdash M
 0 0 0 C
1399 358 M 26 51 m -3 -3 l
3 -2 l
2 2 l
0 3 l
-2 2 l
-5 0 l
-5 -2 l
-3 -5 l
0 -46 l
8 53 m -3 -2 l
-2 -5 l
0 -46 l
-11 35 m 21 0 l
-21 -35 m 18 0 l
23 35 m 0 -35 l
3 35 m 0 -35 l
0 20 m 2 8 l
6 5 l
5 2 l
7 0 l
3 -2 l
0 -3 l
-3 -2 l
-2 2 l
2 3 l
-30 2 m 10 0 l
-10 -35 m 18 0 l
43 35 m -7 -2 l
-6 -5 l
-2 -8 l
0 -5 l
2 -8 l
6 -5 l
7 -2 l
5 0 l
8 2 l
5 5 l
3 8 l
0 5 l
-3 8 l
-5 5 l
-8 2 l
-5 0 l
-5 -2 l
-5 -5 l
-3 -8 l
0 -5 l
3 -8 l
5 -5 l
5 -2 l
5 0 m 6 2 l
5 5 l
2 8 l
0 5 l
-2 8 l
-5 5 l
-6 2 l
36 0 m 0 -35 l
3 35 m 0 -35 l
0 28 m 5 5 l
8 2 l
5 0 l
8 -2 l
2 -5 l
0 -28 l
-10 35 m 5 -2 l
3 -5 l
0 -28 l
2 28 m 5 5 l
8 2 l
5 0 l
8 -2 l
2 -5 l
0 -28 l
-10 35 m 5 -2 l
3 -5 l
0 -28 l
-64 35 m 10 0 l
-10 -35 m 18 0 l
10 0 m 18 0 l
10 0 m 18 0 l
59 53 m 0 -53 l
3 53 m 0 -53 l
30 53 m 0 -53 l
3 53 m 0 -53 l
-44 53 m 18 0 l
16 0 m 18 0 l
-41 -25 m 30 0 l
-41 -28 m 18 0 l
16 0 m 18 0 l
59 30 m 0 -2 l
-3 0 l
0 2 l
3 3 l
5 2 l
10 0 l
5 -2 l
3 -3 l
2 -5 l
0 -18 l
3 -5 l
3 -2 l
-8 30 m 0 -23 l
2 -5 l
6 -2 l
2 0 l
-10 25 m -3 -2 l
-15 -3 l
-8 -3 l
-2 -5 l
0 -5 l
2 -5 l
8 -2 l
8 0 l
5 2 l
5 5 l
-18 13 m -5 -3 l
-3 -5 l
0 -5 l
3 -5 l
5 -2 l
46 53 m 0 -53 l
3 53 m 0 -53 l
-11 53 m 11 0 l
-11 -53 m 18 0 l
29 35 m -8 -2 l
-5 -5 l
-3 -8 l
0 -5 l
3 -8 l
5 -5 l
8 -2 l
5 0 l
7 2 l
6 5 l
2 8 l
0 5 l
-2 8 l
-6 5 l
-7 2 l
-5 0 l
-6 -2 l
-5 -5 l
-2 -8 l
0 -5 l
2 -8 l
5 -5 l
6 -2 l
5 0 m 5 2 l
5 5 l
3 8 l
0 5 l
-3 8 l
-5 5 l
-5 2 l
36 0 m 0 -35 l
2 35 m 0 -35 l
0 28 m 5 5 l
8 2 l
5 0 l
8 -2 l
2 -5 l
0 -28 l
-10 35 m 5 -2 l
3 -5 l
0 -28 l
-36 35 m 10 0 l
-10 -35 m 18 0 l
10 0 m 18 0 l
15 20 m 31 0 l
0 5 l
-2 5 l
-3 3 l
-5 2 l
-8 0 l
-7 -2 l
-6 -5 l
-2 -8 l
0 -5 l
2 -8 l
6 -5 l
7 -2 l
5 0 l
8 2 l
5 5 l
-2 13 m 0 8 l
-3 5 l
-13 2 m -5 -2 l
-5 -5 l
-3 -8 l
0 -5 l
3 -8 l
5 -5 l
5 -2 l
 0 0 0 C
26 0 m CS [] 0 setdash M
1477 1031 M CS [] 0 setdash M
 0 0 0 C
 0 0 0 C
 0 0 0 C
1477 1011 M 13 54 m 0 -54 l
2 54 m 0 -54 l
-10 54 m 10 0 l
-10 -54 m 18 0 l
18 36 m 0 -36 l
3 36 m 0 -36 l
0 28 m 5 6 l
7 2 l
5 0 l
8 -2 l
3 -6 l
0 -28 l
-11 36 m 6 -2 l
2 -6 l
0 -28 l
-36 36 m 11 0 l
-11 -36 m 18 0 l
10 0 m 18 0 l
34 64 m -5 -5 l
-5 -7 l
-6 -11 l
-2 -13 l
0 -10 l
2 -13 l
6 -10 l
5 -8 l
5 -5 l
-5 77 m -5 -10 l
-3 -8 l
-3 -13 l
0 -10 l
3 -13 l
3 -7 l
5 -11 l
23 26 m 2 -8 l
3 -2 l
5 -3 l
5 0 l
8 3 l
5 7 l
3 8 l
0 8 l
-3 5 l
-3 3 l
-5 2 l
-5 0 l
-8 -2 l
-5 -8 l
-2 -8 l
-11 -36 l
26 18 m 5 3 l
5 7 l
3 8 l
0 10 l
-3 6 l
-10 2 m -5 -2 l
-5 -8 l
-3 -8 l
-10 -36 l
 0 0 0 C
54 26 m 0 -32 l
1 32 m 0 -32 l
-6 32 m 16 0 l
4 -2 l
3 -3 l
2 -3 l
1 -4 l
0 -8 l
-1 -5 l
-2 -3 l
-3 -3 l
-4 -1 l
-16 0 l
16 32 m 3 -2 l
3 -3 l
1 -3 l
2 -4 l
0 -8 l
-2 -5 l
-1 -3 l
-3 -3 l
-3 -1 l
23 32 m 0 -32 l
1 32 m 0 -32 l
9 23 m 0 -13 l
-15 22 m 25 0 l
0 -9 l
-2 9 l
-17 -16 m 9 0 l
-15 -16 m 25 0 l
CS M
0 9 l
-2 -9 l
 0 0 0 C
14 88 m 5 -5 l
5 -7 l
5 -11 l
3 -13 l
0 -10 l
-3 -13 l
-5 -10 l
-5 -8 l
-5 -5 l
5 77 m 5 -10 l
3 -8 l
2 -13 l
0 -10 l
-2 -13 l
-3 -7 l
-5 -11 l
 0 0 0 C
65 13 m CS [] 0 setdash M
 255 0 0 C
848 1408 M CS [] 0 setdash M
 255 0 0 C
848 1381 M 10 36 m 10 -36 l
-7 36 m 7 -28 l
11 28 m -11 -36 l
11 36 m 10 -36 l
-8 36 m 8 -28 l
10 28 m -10 -36 l
-39 36 m 18 0 l
24 0 m 15 0 l
56 0 m 0 -36 l
3 36 m 0 -36 l
0 21 m 2 7 l
6 5 l
5 3 l
7 0 l
3 -3 l
0 -2 l
-3 -3 l
-2 3 l
2 2 l
-30 3 m 10 0 l
-10 -36 m 18 0 l
30 21 m 31 0 l
0 5 l
-2 5 l
-3 2 l
-5 3 l
-8 0 l
-7 -3 l
-6 -5 l
-2 -7 l
0 -5 l
2 -8 l
6 -5 l
7 -3 l
5 0 l
8 3 l
5 5 l
-2 13 m 0 7 l
-3 5 l
-13 3 m -5 -3 l
-5 -5 l
-3 -7 l
0 -5 l
3 -8 l
5 -5 l
5 -3 l
39 54 m 0 -54 l
2 54 m 0 -54 l
-10 54 m 10 0 l
-10 -54 m 18 0 l
18 31 m 0 -3 l
-3 0 l
0 3 l
3 2 l
5 3 l
10 0 l
5 -3 l
3 -2 l
3 -5 l
0 -18 l
2 -5 l
3 -3 l
-8 31 m 0 -23 l
3 -5 l
5 -3 l
2 0 l
-10 26 m -3 -3 l
-15 -2 l
-8 -3 l
-2 -5 l
0 -5 l
2 -5 l
8 -3 l
8 0 l
5 3 l
5 5 l
-18 13 m -5 -3 l
-3 -5 l
0 -5 l
3 -5 l
5 -3 l
46 54 m 0 -44 l
3 -7 l
5 -3 l
5 0 l
5 3 l
3 5 l
-18 46 m 0 -44 l
2 -7 l
3 -3 l
-15 36 m 20 0 l
26 18 m -3 -3 l
3 -2 l
2 2 l
-2 3 l
0 -18 m 0 -36 l
2 36 m 0 -36 l
-10 36 m 10 0 l
-10 -36 m 18 0 l
13 36 m 15 -36 l
-13 36 m 13 -31 l
16 31 m -16 -36 l
-20 36 m 15 0 l
10 0 m 16 0 l
13 -15 m 30 0 l
0 5 l
-2 5 l
-3 2 l
-5 3 l
-8 0 l
-7 -3 l
-5 -5 l
-3 -7 l
0 -5 l
3 -8 l
5 -5 l
7 -3 l
6 0 l
7 3 l
5 5 l
-2 13 m 0 7 l
-3 5 l
-13 3 m -5 -3 l
-5 -5 l
-2 -7 l
0 -5 l
2 -8 l
5 -5 l
5 -3 l
80 54 m 0 -44 l
3 -7 l
5 -3 l
5 0 l
5 3 l
2 5 l
-17 46 m 0 -44 l
2 -7 l
3 -3 l
-16 36 m 21 0 l
36 0 m -8 -3 l
-5 -5 l
-3 -7 l
0 -5 l
3 -8 l
5 -5 l
8 -3 l
5 0 l
8 3 l
5 5 l
2 8 l
0 5 l
-2 7 l
-5 5 l
-8 3 l
-5 0 l
-5 -3 l
-6 -5 l
-2 -7 l
0 -5 l
2 -8 l
6 -5 l
5 -3 l
5 0 m 5 3 l
5 5 l
3 8 l
0 5 l
-3 7 l
-5 5 l
-5 3 l
100 0 m -28 -36 l
31 36 m -29 -36 l
0 36 m -2 -10 l
0 10 l
31 0 l
-31 -36 m 31 0 l
0 10 l
-3 -10 l
20 31 m 47 0 l
-47 -15 m 47 0 l
33 38 m -8 -3 l
-5 -7 l
-2 -13 l
0 -8 l
2 -13 l
5 -7 l
8 -3 l
5 0 l
8 3 l
5 7 l
3 13 l
0 8 l
-3 13 l
-5 7 l
-8 3 l
-5 0 l
-5 -3 l
-3 -2 l
-2 -5 l
-3 -13 l
0 -8 l
3 -13 l
2 -5 l
3 -2 l
5 -3 l
5 0 m 5 3 l
3 2 l
2 5 l
3 13 l
0 8 l
-3 13 l
-2 5 l
-3 2 l
-5 3 l
 255 0 0 C
24 -54 m CS [] 0 setdash M
 0 0 255 C
355 1246 M CS [] 0 setdash M
 0 0 255 C
355 1232 M 16 43 m 5 3 l
8 8 l
0 -54 l
-3 51 m 0 -51 l
-10 0 m 23 0 l
67 54 m -46 -54 l
12 54 m 6 -5 l
0 -6 l
-3 -5 l
-5 -2 l
-5 0 l
-5 5 l
0 5 l
2 5 l
5 3 l
5 0 l
6 -3 l
7 -2 l
8 0 l
8 2 l
5 3 l
-11 -36 m -5 -3 l
-2 -5 l
0 -5 l
5 -5 l
5 0 l
5 2 l
3 5 l
0 6 l
-5 5 l
-6 0 l
72 36 m 0 -54 l
3 54 m 0 -54 l
31 54 m 0 -54 l
2 54 m 0 -54 l
-43 54 m 18 0 l
15 0 m 18 0 l
-41 -26 m 31 0 l
-41 -28 m 18 0 l
15 0 m 18 0 l
19 7 m -5 -1 l
-3 -5 l
-1 -7 l
0 -5 l
1 -8 l
3 -4 l
5 -2 l
3 0 l
5 2 l
3 4 l
1 8 l
0 5 l
-1 7 l
-3 5 l
-5 1 l
-3 0 l
-3 -1 l
-2 -2 l
-1 -3 l
-2 -7 l
0 -5 l
2 -8 l
1 -3 l
2 -1 l
3 -2 l
3 0 m 3 2 l
2 1 l
1 3 l
2 8 l
CS M
0 5 l
-2 7 l
-1 3 l
-2 2 l
-3 1 l
 0 0 255 C
14 -7 m CS [] 0 setdash M
 0 0 0 C
CS M 3 100 mul 72 div dup setlinewidth
/P [ /gsave cvx 0 5 -1 roll .05 add dup -2 div 0 exch /rmoveto cvx /rlineto cvx /stroke cvx /grestore cvx ] cvx def
 0 0 0 C
368 452 M B
11 -10 m 379 463 L
358 463 L
358 442 L
379 442 L
CF M
76 439 m B
10 -10 m 465 892 L
444 892 L
444 871 L
465 871 L
CF M
89 193 m B
11 -10 m 565 1075 L
543 1075 L
543 1054 L
565 1054 L
CF M
103 103 m B
10 -10 m 678 1168 L
657 1168 L
657 1147 L
678 1147 L
CF M
120 38 m B
11 -11 m 809 1195 L
788 1195 L
788 1174 L
809 1174 L
CF M
139 -12 m B
11 -10 m 959 1173 L
938 1173 L
938 1152 L
959 1152 L
CF M
161 -34 m B
10 -11 m 1130 1128 L
1109 1128 L
1109 1107 L
1130 1107 L
CF M
187 -75 m B
10 -10 m 1328 1043 L
1306 1043 L
1306 1022 L
1328 1022 L
CF M
215 -98 m B
10 -10 m 1554 935 L
1532 935 L
1532 914 L
1554 914 L
CF M
248 -109 m B
11 -10 m 1813 816 L
1792 816 L
1792 795 L
1813 795 L
CF M
287 -133 m B
10 -11 m 2110 673 L
2089 673 L
2089 651 L
2110 651 L
CF M
CS [] 0 setdash M
CS M 3 100 mul 72 div dup setlinewidth
/P [ /gsave cvx 0 5 -1 roll .05 add dup -2 div 0 exch /rmoveto cvx /rlineto cvx /stroke cvx /grestore cvx ] cvx def
368 452 M 37 0 l
0 15 m 0 -30 l
50 444 m 42 0 l
0 15 m 0 -30 l
57 198 m 49 0 l
0 15 m 0 -30 l
65 108 m 57 0 l
0 15 m 0 -30 l
73 43 m 66 0 l
0 15 m 0 -30 l
84 -8 m 76 0 l
0 15 m 0 -30 l
96 -29 m 88 0 l
0 15 m 0 -30 l
109 -71 m 101 0 l
0 15 m 0 -30 l
125 -93 m 117 0 l
0 15 m 0 -30 l
142 -104 m 135 0 l
0 15 m 0 -30 l
163 -128 m 155 0 l
0 15 m 0 -30 l
368 452 M -36 0 l
0 15 m 0 -30 l
123 444 m -42 0 l
0 15 m 0 -30 l
141 198 m -49 0 l
0 15 m 0 -30 l
163 108 m -57 0 l
0 15 m 0 -30 l
187 43 m -66 0 l
0 15 m 0 -30 l
216 -8 m -76 0 l
0 15 m 0 -30 l
248 -29 m -88 0 l
0 15 m 0 -30 l
285 -71 m -102 0 l
0 15 m 0 -30 l
328 -93 m -117 0 l
0 15 m 0 -30 l
376 -104 m -134 0 l
0 15 m 0 -30 l
432 -128 m -155 0 l
0 15 m 0 -30 l
353 -134 m -35 0 l
0 15 m 0 -30 l
CS [] 0 setdash M
 255 0 0 C
455 661 M 10 -10 m 0 21 l
-21 0 l
0 -21 l
21 0 l
89 430 m 11 -11 m 0 22 l
-22 0 l
0 -22 l
22 0 l
103 261 m 10 -11 m 0 21 l
-21 0 l
0 -21 l
21 0 l
120 155 m 11 -10 m 0 21 l
-21 0 l
0 -21 l
21 0 l
139 81 m 11 -10 m 0 21 l
-21 0 l
0 -21 l
21 0 l
161 44 m 10 -11 m 0 21 l
-21 0 l
0 -21 l
21 0 l
187 -8 m 10 -10 m 0 21 l
-21 0 l
0 -21 l
21 0 l
216 -39 m 10 -11 m 0 21 l
-21 0 l
0 -21 l
21 0 l
249 -56 m 11 -11 m 0 21 l
-21 0 l
0 -21 l
21 0 l
287 -86 m 10 -10 m 0 21 l
-21 0 l
0 -21 l
21 0 l
CS [] 0 setdash M
CS M 3 100 mul 72 div dup setlinewidth
/P [ /gsave cvx 0 5 -1 roll .05 add dup -2 div 0 exch /rmoveto cvx /rlineto cvx /stroke cvx /grestore cvx ] cvx def
455 661 M 42 0 l
0 15 m 0 -30 l
57 435 m 49 0 l
0 15 m 0 -30 l
65 265 m 57 0 l
0 15 m 0 -30 l
73 159 m 66 0 l
0 15 m 0 -30 l
84 86 m 76 0 l
0 15 m 0 -29 l
96 48 m 88 0 l
0 15 m 0 -30 l
109 -4 m 101 0 l
0 15 m 0 -30 l
125 -34 m 117 0 l
0 15 m 0 -30 l
142 -52 m 135 0 l
0 15 m 0 -30 l
163 -82 m 155 0 l
0 15 m 0 -30 l
455 661 M -42 0 l
0 15 m 0 -30 l
141 435 m -49 0 l
0 15 m 0 -30 l
163 265 m -57 0 l
0 15 m 0 -30 l
187 159 m -66 0 l
0 15 m 0 -30 l
216 86 m -76 0 l
0 15 m 0 -29 l
248 48 m -88 0 l
0 15 m 0 -30 l
285 -4 m -102 0 l
0 15 m 0 -30 l
328 -34 m -117 0 l
0 15 m 0 -30 l
376 -52 m -134 0 l
0 15 m 0 -30 l
432 -82 m -155 0 l
0 15 m 0 -30 l
353 -91 m -35 0 l
0 15 m 0 -30 l
CS [] 0 setdash M
 0 0 255 C
602 1192 M -246 0 l
114 -24 l
-97 24 l
97 23 l
-114 -23 l
stroke
grestore
showpage
end
%%Trailer
%%EOF
