%!PS-Adobe-3.0 EPSF-3.0
%%Creator: SM
%%BoundingBox: 18 144 592 570
%%DocumentNeededResources: font Helvetica
%%LanguageLevel: 1
%%Pages: 1
%%EndComments
%%Page: 1 1
 20 dict begin
72 300 div dup scale
1 setlinejoin 0 setlinecap
/Helvetica findfont 55 scalefont setfont 
/B {CS newpath moveto} def
/F {moveto 0 setlinecap} def
/C {CS M 1 1 3 {pop 3 1 roll 255 div} for SET_COLOUR} def
/CS {currentpoint stroke} def
/CF {currentpoint eofill} def
/L {lineto} def /l {rlineto} def /M {moveto} def /m {rmoveto} def
/P {gsave 0 1 rlineto stroke grestore} def
/T {currentlinecap exch 1 setlinecap show setlinecap} def
errordict /nocurrentpoint {pop 0 0 M currentpoint} put
/SET_COLOUR statusdict begin /processcolors where
  {pop processcolors 1 gt} {false} ifelse
  {(setrgbcolor)} {(pop pop pop)} ifelse cvx end def
 80 600 translate
gsave
CS [] 0 setdash M
CS M 3 100 mul 72 div dup setlinewidth
/P [ /gsave cvx 0 5 -1 roll .05 add dup -2 div 0 exch /rmoveto cvx /rlineto cvx /stroke cvx /grestore cvx ] cvx def
 0 0 255 C
CS [] 0 setdash M
CS M 1 100 mul 72 div dup setlinewidth
/P [ /gsave cvx 0 5 -1 roll .05 add dup -2 div 0 exch /rmoveto cvx /rlineto cvx /stroke cvx /grestore cvx ] cvx def
 0 0 0 C
CS M 3 100 mul 72 div dup setlinewidth
/P [ /gsave cvx 0 5 -1 roll .05 add dup -2 div 0 exch /rmoveto cvx /rlineto cvx /stroke cvx /grestore cvx ] cvx def
CS [] 0 setdash M
328 255 M 1970 0 l
0 1423 l
328 1678 L
328 255 L
1970 0 l
328 255 M 1970 0 l
 0 0 0 C
 0 0 0 C
 0 0 0 C
 0 0 0 C
328 255 M 0 55 l
110 -55 m 0 28 l
109 -28 m 0 28 l
109 -28 m 0 28 l
110 -28 m 0 28 l
109 -28 m 0 55 l
110 -55 m 0 28 l
109 -28 m 0 28 l
109 -28 m 0 28 l
110 -28 m 0 28 l
109 -28 m 0 55 l
110 -55 m 0 28 l
109 -28 m 0 28 l
109 -28 m 0 28 l
110 -28 m 0 28 l
109 -28 m 0 55 l
110 -55 m 0 28 l
109 -28 m 0 28 l
110 -28 m 0 28 l
328 1678 M 1970 0 l
 0 0 0 C
 0 0 0 C
 0 0 0 C
 0 0 0 C
328 1678 M 0 -55 l
110 55 m 0 -28 l
109 28 m 0 -28 l
109 28 m 0 -28 l
110 28 m 0 -28 l
109 28 m 0 -55 l
110 55 m 0 -28 l
109 28 m 0 -28 l
109 28 m 0 -28 l
110 28 m 0 -28 l
109 28 m 0 -55 l
110 55 m 0 -28 l
109 28 m 0 -28 l
109 28 m 0 -28 l
110 28 m 0 -28 l
109 28 m 0 -55 l
110 55 m 0 -28 l
109 28 m 0 -28 l
110 28 m 0 -28 l
328 255 M 0 1423 l
328 295 M 28 0 l
-28 76 m 55 0 l
-55 98 m 28 0 l
-28 137 m 55 0 l
-55 235 m 28 0 l
-28 0 m 55 0 l
-55 36 m 28 0 l
-28 40 m 55 0 l
-55 45 m 28 0 l
-28 53 m 55 0 l
-55 62 m 28 0 l
-28 75 m 55 0 l
-55 98 m 28 0 l
-28 138 m 55 0 l
-55 235 m 28 0 l
-28 0 m 55 0 l
-55 36 m 28 0 l
2298 255 M 0 1423 l
2298 295 M -28 0 l
28 76 m -55 0 l
55 98 m -28 0 l
28 137 m -55 0 l
55 235 m -28 0 l
28 0 m -55 0 l
55 36 m -28 0 l
28 40 m -55 0 l
55 45 m -28 0 l
28 53 m -55 0 l
55 62 m -28 0 l
28 75 m -55 0 l
55 98 m -28 0 l
28 138 m -55 0 l
55 235 m -28 0 l
28 0 m -55 0 l
55 36 m -28 0 l
CS [] 0 setdash M
CS M 2 100 mul 72 div dup setlinewidth
/P [ /gsave cvx 0 5 -1 roll .05 add dup -2 div 0 exch /rmoveto cvx /rlineto cvx /stroke cvx /grestore cvx ] cvx def
CS [] 0 setdash M
328 255 M 1970 0 l
0 1423 l
328 1678 L
328 255 L
1970 0 l
328 255 M 1970 0 l
 0 0 0 C
 0 0 0 C
 0 0 0 C
 0 0 0 C
328 255 M 0 55 l
 0 0 0 C
303 155 M 23 54 m -8 -3 l
-5 -8 l
-3 -13 l
0 -7 l
3 -13 l
5 -8 l
8 -2 l
5 0 l
7 2 l
6 8 l
2 13 l
0 7 l
-2 13 l
-6 8 l
-7 3 l
-5 0 l
-6 -3 l
-2 -3 l
-3 -5 l
-2 -13 l
0 -7 l
2 -13 l
3 -5 l
2 -3 l
6 -2 l
5 0 m 5 2 l
2 3 l
3 5 l
3 13 l
0 7 l
-3 13 l
-3 5 l
-2 3 l
-5 3 l
 0 0 0 C
107 46 m 0 28 l
109 -28 m 0 28 l
109 -28 m 0 28 l
110 -28 m 0 28 l
109 -28 m 0 55 l
 0 0 0 C
850 155 M 15 43 m 5 3 l
8 8 l
0 -54 l
-3 51 m 0 -51 l
-10 0 m 23 0 l
 0 0 0 C
97 100 m 0 28 l
109 -28 m 0 28 l
109 -28 m 0 28 l
110 -28 m 0 28 l
109 -28 m 0 55 l
 0 0 0 C
1397 155 M 10 43 m 2 -2 l
-2 -3 l
-3 3 l
0 2 l
3 5 l
2 3 l
8 3 l
10 0 l
8 -3 l
3 -3 l
2 -5 l
0 -5 l
-2 -5 l
-8 -5 l
-13 -5 l
-5 -3 l
-5 -5 l
-3 -8 l
0 -7 l
23 54 m 5 -3 l
3 -3 l
3 -5 l
0 -5 l
-3 -5 l
-8 -5 l
-10 -5 l
-13 -18 m 3 2 l
5 0 l
13 -5 l
7 0 l
6 3 l
2 2 l
-28 0 m 13 -7 l
10 0 l
3 2 l
2 5 l
0 6 l
 0 0 0 C
92 87 m 0 28 l
109 -28 m 0 28 l
109 -28 m 0 28 l
110 -28 m 0 28 l
109 -28 m 0 55 l
 0 0 0 C
1944 155 M 10 43 m 2 -2 l
-2 -3 l
-3 3 l
0 2 l
3 5 l
2 3 l
8 3 l
10 0 l
8 -3 l
3 -5 l
0 -8 l
-3 -5 l
-8 -3 l
-7 0 l
7 24 m 6 -3 l
2 -5 l
0 -8 l
-2 -5 l
-6 -3 l
6 -2 l
5 -5 l
2 -5 l
0 -8 l
-2 -5 l
-3 -3 l
-8 -2 l
-10 0 l
-8 2 l
-2 3 l
-3 5 l
0 3 l
3 2 l
2 -2 l
-2 -3 l
28 15 m 3 -7 l
0 -8 l
-3 -5 l
-2 -3 l
-6 -2 l
 0 0 0 C
105 100 m 0 28 l
109 -28 m 0 28 l
110 -28 m 0 28 l
328 1678 M 1970 0 l
 0 0 0 C
 0 0 0 C
 0 0 0 C
 0 0 0 C
328 1678 M 0 -55 l
110 55 m 0 -28 l
109 28 m 0 -28 l
109 28 m 0 -28 l
110 28 m 0 -28 l
109 28 m 0 -55 l
110 55 m 0 -28 l
109 28 m 0 -28 l
109 28 m 0 -28 l
110 28 m 0 -28 l
109 28 m 0 -55 l
110 55 m 0 -28 l
109 28 m 0 -28 l
109 28 m 0 -28 l
110 28 m 0 -28 l
109 28 m 0 -55 l
110 55 m 0 -28 l
109 28 m 0 -28 l
110 28 m 0 -28 l
328 255 M 0 1423 l
328 295 M 28 0 l
-28 76 m 55 0 l
 0 0 0 C
-153 -27 m 31 49 m 0 -49 l
3 54 m 0 -54 l
0 54 m -29 -39 l
41 0 l
-23 -15 m 18 0 l
 0 0 0 C
57 125 m 28 0 l
-28 137 m 55 0 l
 0 0 0 C
-153 -27 m 10 44 m 3 -3 l
-3 -2 l
-2 2 l
0 3 l
2 5 l
3 3 l
8 2 l
10 0 l
8 -2 l
2 -3 l
3 -5 l
0 -5 l
-3 -5 l
-7 -6 l
-13 -5 l
-5 -2 l
-6 -5 l
-2 -8 l
0 -8 l
23 54 m 5 -2 l
3 -3 l
2 -5 l
0 -5 l
-2 -5 l
-8 -6 l
-10 -5 l
-13 -18 m 2 3 l
6 0 l
12 -5 l
8 0 l
5 2 l
3 3 l
-28 0 m 12 -8 l
11 0 l
2 3 l
3 5 l
0 5 l
 0 0 0 C
54 249 m 28 0 l
-28 0 m 55 0 l
 0 0 0 C
-153 -27 m 16 44 m 5 3 l
7 7 l
0 -54 l
-2 52 m 0 -52 l
-10 0 m 23 0 l
 0 0 0 C
59 63 m 28 0 l
-28 40 m 55 0 l
 0 0 0 C
153 890 M 23 54 m -7 -2 l
-6 -8 l
-2 -13 l
CS M
0 -8 l
2 -13 l
6 -7 l
7 -3 l
5 0 l
8 3 l
5 7 l
3 13 l
0 8 l
-3 13 l
-5 8 l
-8 2 l
-5 0 l
-5 -2 l
-2 -3 l
-3 -5 l
-3 -13 l
0 -8 l
3 -13 l
3 -5 l
2 -2 l
5 -3 l
5 0 m 5 3 l
3 2 l
3 5 l
2 13 l
0 8 l
-2 13 l
-3 5 l
-3 3 l
-5 2 l
36 -49 m -2 -2 l
2 -3 l
3 3 l
-3 2 l
34 49 m -8 -2 l
-3 -6 l
0 -7 l
3 -5 l
8 -3 l
10 0 l
8 3 l
2 5 l
0 7 l
-2 6 l
-8 2 l
-10 0 l
-5 -2 l
-3 -6 l
0 -7 l
3 -5 l
5 -3 l
10 0 m 5 3 l
3 5 l
0 7 l
-3 6 l
-5 2 l
-10 -23 m -8 -3 l
-3 -2 l
-2 -5 l
0 -11 l
2 -5 l
3 -2 l
8 -3 l
10 0 l
8 3 l
2 2 l
3 5 l
0 11 l
-3 5 l
-2 2 l
-8 3 l
-10 0 m -5 -3 l
-3 -2 l
-3 -5 l
0 -11 l
3 -5 l
3 -2 l
5 -3 l
10 0 m 5 3 l
3 2 l
2 5 l
0 11 l
-2 5 l
-3 2 l
-5 3 l
 0 0 0 C
67 41 m 28 0 l
-28 53 m 55 0 l
 0 0 0 C
153 988 M 23 54 m -7 -3 l
-6 -8 l
-2 -12 l
0 -8 l
2 -13 l
6 -8 l
7 -2 l
5 0 l
8 2 l
5 8 l
3 13 l
0 8 l
-3 12 l
-5 8 l
-8 3 l
-5 0 l
-5 -3 l
-2 -2 l
-3 -6 l
-3 -12 l
0 -8 l
3 -13 l
3 -5 l
2 -3 l
5 -2 l
5 0 m 5 2 l
3 3 l
3 5 l
2 13 l
0 8 l
-2 12 l
-3 6 l
-3 2 l
-5 3 l
36 -49 m -2 -3 l
2 -2 l
3 2 l
-3 3 l
52 41 m -3 -3 l
3 -2 l
2 2 l
0 3 l
-2 5 l
-5 3 l
-8 0 l
-8 -3 l
-5 -5 l
-3 -5 l
-2 -10 l
0 -16 l
2 -8 l
6 -5 l
7 -2 l
5 0 l
8 2 l
5 5 l
3 8 l
0 3 l
-3 7 l
-5 6 l
-8 2 l
-2 0 l
-8 -2 l
-5 -6 l
-3 -7 l
16 36 m -5 -3 l
-5 -5 l
-3 -5 l
-3 -10 l
0 -16 l
3 -8 l
5 -5 l
5 -2 l
5 0 m 6 2 l
5 5 l
2 8 l
0 3 l
-2 7 l
-5 6 l
-6 2 l
 0 0 0 C
70 56 m 28 0 l
-28 75 m 55 0 l
 0 0 0 C
153 1125 M 23 54 m -7 -2 l
-6 -8 l
-2 -13 l
0 -8 l
2 -12 l
6 -8 l
7 -3 l
5 0 l
8 3 l
5 8 l
3 12 l
0 8 l
-3 13 l
-5 8 l
-8 2 l
-5 0 l
-5 -2 l
-2 -3 l
-3 -5 l
-3 -13 l
0 -8 l
3 -12 l
3 -5 l
2 -3 l
5 -3 l
5 0 m 5 3 l
3 3 l
3 5 l
2 12 l
0 8 l
-2 13 l
-3 5 l
-3 3 l
-5 2 l
36 -48 m -2 -3 l
2 -3 l
3 3 l
-3 3 l
44 43 m 0 -49 l
3 54 m 0 -54 l
0 54 m -29 -38 l
41 0 l
-23 -16 m 18 0 l
 0 0 0 C
57 125 m 28 0 l
-28 138 m 55 0 l
 0 0 0 C
153 1361 M 23 54 m -7 -3 l
-6 -8 l
-2 -13 l
0 -7 l
2 -13 l
6 -8 l
7 -2 l
5 0 l
8 2 l
5 8 l
3 13 l
0 7 l
-3 13 l
-5 8 l
-8 3 l
-5 0 l
-5 -3 l
-2 -3 l
-3 -5 l
-3 -13 l
0 -7 l
3 -13 l
3 -5 l
2 -3 l
5 -2 l
5 0 m 5 2 l
3 3 l
3 5 l
2 13 l
0 7 l
-2 13 l
-3 5 l
-3 3 l
-5 3 l
36 -49 m -2 -3 l
2 -2 l
3 2 l
-3 3 l
23 38 m 3 -2 l
-3 -3 l
-2 3 l
0 2 l
2 5 l
3 3 l
8 3 l
10 0 l
8 -3 l
2 -3 l
3 -5 l
0 -5 l
-3 -5 l
-7 -5 l
-13 -5 l
-5 -3 l
-6 -5 l
-2 -8 l
0 -7 l
23 54 m 5 -3 l
3 -3 l
2 -5 l
0 -5 l
-2 -5 l
-8 -5 l
-10 -5 l
-13 -18 m 2 2 l
6 0 l
12 -5 l
8 0 l
5 3 l
3 2 l
-28 0 m 12 -7 l
11 0 l
2 2 l
3 5 l
0 5 l
 0 0 0 C
54 250 m 28 0 l
-28 0 m 55 0 l
 0 0 0 C
153 1596 M 23 54 m -7 -3 l
-6 -8 l
-2 -12 l
0 -8 l
2 -13 l
6 -8 l
7 -2 l
5 0 l
CS M
8 2 l
5 8 l
3 13 l
0 8 l
-3 12 l
-5 8 l
-8 3 l
-5 0 l
-5 -3 l
-2 -2 l
-3 -6 l
-3 -12 l
0 -8 l
3 -13 l
3 -5 l
2 -3 l
5 -2 l
5 0 m 5 2 l
3 3 l
3 5 l
2 13 l
0 8 l
-2 12 l
-3 6 l
-3 2 l
-5 3 l
36 -49 m -2 -3 l
2 -2 l
3 2 l
-3 3 l
29 38 m 5 3 l
7 8 l
0 -54 l
-2 51 m 0 -51 l
-10 0 m 23 0 l
 0 0 0 C
59 63 m 28 0 l
2298 255 M 0 1423 l
2298 295 M -28 0 l
28 76 m -55 0 l
55 98 m -28 0 l
28 137 m -55 0 l
55 235 m -28 0 l
28 0 m -55 0 l
55 36 m -28 0 l
28 40 m -55 0 l
55 45 m -28 0 l
28 53 m -55 0 l
55 62 m -28 0 l
28 75 m -55 0 l
55 98 m -28 0 l
28 138 m -55 0 l
55 235 m -28 0 l
28 0 m -55 0 l
55 36 m -28 0 l
CS [] 0 setdash M
CS [] 0 setdash M
 0 0 0 C
1133 54 M 13 54 m 1146 54 L
3 54 m 1149 54 L
-11 54 m 31 0 l
8 -3 l
2 -2 l
3 -5 l
0 -5 l
-3 -6 l
-2 -2 l
-8 -3 l
-20 0 l
20 26 m 5 -3 l
3 -2 l
2 -5 l
0 -5 l
-2 -6 l
-3 -2 l
-5 -3 l
-31 -28 m 18 0 l
5 28 m 5 -2 l
3 -3 l
8 -18 l
2 -2 l
3 0 l
2 2 l
-18 21 m 3 -5 l
5 -18 l
3 -3 l
5 0 l
2 5 l
0 3 l
16 13 m 31 0 l
0 5 l
-3 5 l
-3 2 l
-5 3 l
-7 0 l
-8 -3 l
-5 -5 l
-3 -7 l
0 -5 l
3 -8 l
5 -5 l
8 -3 l
5 0 l
7 3 l
6 5 l
-3 13 m 0 7 l
-3 5 l
-12 3 m -5 -3 l
-6 -5 l
-2 -7 l
0 -5 l
2 -8 l
6 -5 l
5 -3 l
64 54 m 1277 54 L
2 54 m 1279 54 L
-2 28 m -5 5 l
-5 3 l
-6 0 l
-7 -3 l
-5 -5 l
-3 -7 l
0 -5 l
3 -8 l
5 -5 l
7 -3 l
6 0 l
5 3 l
5 5 l
-16 28 m -5 -3 l
-5 -5 l
-2 -7 l
0 -5 l
2 -8 l
5 -5 l
5 -3 l
8 54 m 10 0 l
1277 54 M 10 0 l
39 31 m 2 5 l
0 -10 l
-2 5 l
-3 2 l
-5 3 l
-10 0 l
-6 -3 l
-2 -2 l
0 -5 l
2 -3 l
6 -2 l
12 -5 l
6 -3 l
2 -3 l
-28 18 m 2 -2 l
6 -3 l
12 -5 l
6 -2 l
2 -3 l
0 -8 l
-2 -2 l
-6 -3 l
-10 0 l
-5 3 l
-3 2 l
-2 5 l
0 -10 l
2 5 l
47 49 m 1349 54 L
2 54 m 1351 54 L
0 28 m 5 5 l
8 3 l
5 0 l
8 -3 l
2 -5 l
0 -28 l
-10 36 m 5 -3 l
3 -5 l
0 -28 l
-36 54 m 10 0 l
1341 54 M 18 0 l
10 0 m 18 0 l
18 54 m -2 -3 l
2 -2 l
3 2 l
-3 3 l
0 -18 m 0 -36 l
3 36 m 0 -36 l
-11 36 m 11 0 l
-11 -36 m 18 0 l
31 51 m -2 -2 l
2 -3 l
3 3 l
0 2 l
-3 3 l
-5 0 l
-5 -3 l
-3 -5 l
0 -46 l
8 54 m -3 -3 l
-2 -5 l
0 -46 l
-10 36 m 20 0 l
-20 -36 m 18 0 l
23 54 m 0 -44 l
2 -7 l
5 -3 l
6 0 l
5 3 l
2 5 l
-18 46 m 0 -44 l
3 -7 l
2 -3 l
-15 36 m 21 0 l
 0 0 0 C
CS [] 0 setdash M
CS [] 0 setdash M
 0 0 0 C
89 516 M 35 529 M 54 0 l
35 531 M 54 0 l
-39 16 m 21 0 l
35 521 M 0 41 l
15 0 l
-15 -3 l
25 -28 m 0 16 l
29 -26 m 0 18 l
-36 41 m 36 0 l
-36 3 m 36 0 l
-21 0 m -8 2 l
-5 5 l
-2 5 l
0 8 l
2 3 l
3 0 l
2 -3 l
-2 -3 l
-3 3 l
-2 -31 m 0 11 l
36 -11 m 0 18 l
-31 34 m 2 0 l
0 -3 l
-2 0 l
-3 3 l
-2 5 l
0 10 l
2 5 l
3 3 l
5 2 l
18 0 l
5 3 l
3 2 l
-31 -7 m 23 0 l
5 2 l
3 5 l
0 3 l
-26 -10 m 2 -3 l
3 -15 l
3 -8 l
5 -3 l
5 0 l
5 3 l
3 8 l
0 7 l
-3 6 l
-5 5 l
-13 -18 m 3 -5 l
5 -3 l
5 0 l
5 3 l
3 5 l
-29 72 m 3 -3 l
2 3 l
-2 2 l
-3 0 l
-5 -5 l
-2 -5 l
0 -8 l
2 -7 l
5 -6 l
8 -2 l
5 0 l
8 2 l
5 6 l
3 7 l
0 5 l
-3 8 l
-5 5 l
-28 -18 m 2 -5 l
5 -5 l
8 -3 l
5 0 l
8 3 l
5 5 l
3 5 l
35 724 M 43 0 l
8 2 l
3 5 l
0 6 l
-3 5 l
-5 2 l
35 726 M 43 0 l
8 3 l
3 2 l
-36 -15 m 0 21 l
-18 25 m 2 -2 l
3 2 l
-3 3 l
-2 -3 l
18 0 m 36 0 l
-36 3 m 36 0 l
CS M
-36 -11 m 0 11 l
36 -11 m 0 18 l
-36 29 m 2 -8 l
5 -5 l
8 -3 l
5 0 l
8 3 l
5 5 l
3 8 l
0 5 l
-3 7 l
-5 6 l
-8 2 l
-5 0 l
-8 -2 l
-5 -6 l
-2 -7 l
0 -5 l
2 -5 l
5 -6 l
8 -2 l
5 0 l
8 2 l
5 6 l
3 5 l
0 5 m -3 5 l
-5 5 l
-8 3 l
-5 0 l
-8 -3 l
-5 -5 l
-2 -5 l
0 36 m 36 0 l
-36 2 m 36 0 l
-29 0 m -5 5 l
-2 8 l
0 5 l
2 8 l
5 3 l
29 0 l
-36 -11 m 2 5 l
5 3 l
29 0 l
-36 -36 m 0 10 l
36 -10 m 0 18 l
0 10 m 0 18 l
-31 18 m 2 0 l
0 -2 l
-2 0 l
-3 2 l
-2 5 l
0 11 l
2 5 l
3 2 l
5 3 l
18 0 l
5 2 l
3 3 l
-31 -8 m 23 0 l
5 3 l
3 5 l
0 3 l
-26 -11 m 2 -2 l
3 -16 l
3 -7 l
5 -3 l
5 0 l
5 3 l
3 7 l
0 8 l
-3 5 l
-5 5 l
-13 -18 m 3 -5 l
5 -2 l
5 0 l
5 2 l
3 5 l
35 950 M 54 0 l
35 952 M 54 0 l
35 942 M 0 10 l
54 -10 m 0 18 l
35 1019 M 54 0 l
35 1021 M 54 0 l
-39 16 m 21 0 l
35 1011 M 0 41 l
15 0 l
-15 -2 l
25 -29 m 0 16 l
29 -26 m 0 41 l
-16 0 l
16 -2 l
-36 23 m 36 0 l
-36 2 m 36 0 l
-21 0 m -8 3 l
-5 5 l
-2 5 l
0 8 l
2 2 l
3 0 l
2 -2 l
-2 -3 l
-3 3 l
-2 -31 m 0 10 l
36 -10 m 0 18 l
-36 33 m 36 0 l
-36 3 m 36 0 l
-21 0 m -8 2 l
-5 6 l
-2 5 l
0 7 l
2 3 l
3 0 l
2 -3 l
-2 -2 l
-3 2 l
-2 -30 m 0 10 l
36 -10 m 0 18 l
-36 43 m 2 -7 l
5 -6 l
8 -2 l
5 0 l
8 2 l
5 6 l
3 7 l
0 5 l
-3 8 l
-5 5 l
-8 3 l
-5 0 l
-8 -3 l
-5 -5 l
-2 -8 l
0 -5 l
2 -5 l
5 -5 l
8 -3 l
5 0 l
8 3 l
5 5 l
3 5 l
0 5 m -3 5 l
-5 6 l
-8 2 l
-5 0 l
-8 -2 l
-5 -6 l
-2 -5 l
0 36 m 36 0 l
-36 3 m 36 0 l
-21 0 m -8 2 l
-5 6 l
-2 5 l
0 7 l
2 3 l
3 0 l
2 -3 l
-2 -2 l
-3 2 l
-2 -30 m 0 10 l
36 -10 m 0 18 l
24 1311 M 5 -5 l
8 -5 l
10 -5 l
13 -3 l
11 0 l
12 3 l
11 5 l
7 5 l
5 5 l
29 1306 M 11 -5 l
7 -2 l
13 -3 l
11 0 l
12 3 l
8 2 l
10 5 l
35 1373 M 54 -46 l
35 1340 M 5 5 l
5 0 l
5 -3 l
3 -5 l
0 -5 l
-6 -5 l
-5 0 l
-5 2 l
-2 5 l
0 6 l
2 5 l
3 7 l
0 8 l
-3 8 l
-2 5 l
36 -10 m 2 -5 l
5 -3 l
5 0 l
6 5 l
0 5 l
-3 5 l
-5 3 l
-5 0 l
-5 -5 l
0 -5 l
24 1388 M 5 5 l
8 6 l
10 5 l
13 2 l
11 0 l
12 -2 l
11 -5 l
7 -6 l
5 -5 l
29 1393 M 11 6 l
7 2 l
13 3 l
11 0 l
12 -3 l
8 -2 l
10 -6 l
 0 0 0 C
CS [] 0 setdash M
1805 763 M CS [] 0 setdash M
 0 0 0 C
1456 745 M 13 54 m 0 -54 l
2 54 m 0 -54 l
16 39 m 0 -21 l
-26 36 m 41 0 l
0 -15 l
-2 15 l
-29 -26 m 16 0 l
-26 -28 m 18 0 l
41 36 m 0 -28 l
3 -5 l
7 -3 l
6 0 l
7 3 l
5 5 l
-25 28 m 0 -28 l
2 -5 l
5 -3 l
18 36 m 0 -36 l
3 36 m 0 -36 l
-39 36 m 11 0 l
18 0 m 10 0 l
-3 -36 m 11 0 l
18 54 m 0 -54 l
2 54 m 0 -54 l
-10 54 m 10 0 l
-10 -54 m 18 0 l
18 54 m 0 -54 l
2 54 m 0 -54 l
-10 54 m 10 0 l
-10 -54 m 18 0 l
16 23 m 46 0 l
43 8 m 3 5 l
0 -10 l
-3 5 l
-2 3 l
-5 2 l
-11 0 l
-5 -2 l
-2 -3 l
0 -5 l
2 -3 l
5 -2 l
13 -5 l
5 -3 l
3 -3 l
-28 18 m 2 -2 l
5 -3 l
13 -5 l
5 -2 l
3 -3 l
0 -8 l
-3 -2 l
-5 -3 l
-10 0 l
-5 3 l
-3 2 l
-2 5 l
0 -10 l
2 5 l
46 49 m 0 -54 l
3 54 m 0 -54 l
26 36 m -26 -26 l
13 11 m 15 -21 l
-18 21 m 16 -21 l
-36 54 m 10 0 l
18 -18 m 15 0 l
-43 -36 m 18 0 l
10 0 m 15 0 l
16 36 m 15 -36 l
-13 36 m 13 -31 l
16 31 m -16 -36 l
-5 -10 l
-5 -5 l
-5 -3 l
-3 0 l
-2 3 l
2 2 l
3 -2 l
-5 51 m 15 0 l
10 0 m 16 0 l
56 18 m 0 -54 l
3 54 m 0 -54 l
CS M
15 39 m 0 -21 l
-26 36 m 42 0 l
0 -15 l
-3 15 l
-28 -26 m 15 0 l
-26 -28 m 42 0 l
0 16 l
-3 -16 l
23 36 m 0 -36 l
3 36 m 0 -36 l
0 21 m 2 7 l
5 6 l
5 2 l
8 0 l
3 -2 l
0 -3 l
-3 -3 l
-2 3 l
2 3 l
-31 2 m 11 0 l
-11 -36 m 18 0 l
34 36 m 0 -36 l
2 36 m 0 -36 l
0 21 m 3 7 l
5 6 l
5 2 l
8 0 l
2 -2 l
0 -3 l
-2 -3 l
-3 3 l
3 3 l
-31 2 m 10 0 l
-10 -36 m 18 0 l
44 36 m -8 -2 l
-5 -6 l
-3 -7 l
0 -5 l
3 -8 l
5 -5 l
8 -3 l
5 0 l
7 3 l
6 5 l
2 8 l
0 5 l
-2 7 l
-6 6 l
-7 2 l
-5 0 l
-6 -2 l
-5 -6 l
-2 -7 l
0 -5 l
2 -8 l
5 -5 l
6 -3 l
5 0 m 5 3 l
5 5 l
3 8 l
0 5 l
-3 7 l
-5 6 l
-5 2 l
36 0 m 0 -36 l
2 36 m 0 -36 l
0 21 m 3 7 l
5 6 l
5 2 l
8 0 l
2 -2 l
0 -3 l
-2 -3 l
-3 3 l
3 3 l
-31 2 m 10 0 l
-10 -36 m 18 0 l
54 31 m 2 5 l
0 -10 l
-2 5 l
-3 3 l
-5 2 l
-10 0 l
-5 -2 l
-3 -3 l
0 -5 l
3 -3 l
5 -2 l
13 -5 l
5 -3 l
2 -3 l
-28 18 m 3 -2 l
5 -3 l
13 -5 l
5 -2 l
2 -3 l
0 -8 l
-2 -2 l
-5 -3 l
-11 0 l
-5 3 l
-2 2 l
-3 5 l
0 -10 l
3 5 l
 0 0 0 C
33 -5 m CS [] 0 setdash M
 0 0 0 C
CS M 3 100 mul 72 div dup setlinewidth
/P [ /gsave cvx 0 5 -1 roll .05 add dup -2 div 0 exch /rmoveto cvx /rlineto cvx /stroke cvx /grestore cvx ] cvx def
 0 0 0 C
368 305 M B
11 -11 m 379 316 L
358 316 L
358 294 L
379 294 L
CF M
76 369 m B
10 -10 m 465 674 L
444 674 L
444 653 L
465 653 L
CF M
89 204 m B
11 -11 m 565 867 L
543 867 L
543 846 L
565 846 L
CF M
103 153 m B
10 -10 m 678 1010 L
657 1010 L
657 989 L
678 989 L
CF M
120 119 m B
11 -11 m 809 1118 L
788 1118 L
788 1097 L
809 1097 L
CF M
139 96 m B
11 -11 m 959 1203 L
938 1203 L
938 1182 L
959 1182 L
CF M
161 90 m B
10 -10 m 1130 1283 L
1109 1283 L
1109 1262 L
1130 1262 L
CF M
187 68 m B
10 -11 m 1328 1340 L
1306 1340 L
1306 1319 L
1328 1319 L
CF M
215 59 m B
10 -11 m 1554 1388 L
1532 1388 L
1532 1367 L
1554 1367 L
CF M
248 54 m B
11 -10 m 1813 1432 L
1792 1432 L
1792 1411 L
1813 1411 L
CF M
287 40 m B
10 -11 m 2110 1461 L
2089 1461 L
2089 1440 L
2110 1440 L
CF M
CS [] 0 setdash M
CS M 3 100 mul 72 div dup setlinewidth
/P [ /gsave cvx 0 5 -1 roll .05 add dup -2 div 0 exch /rmoveto cvx /rlineto cvx /stroke cvx /grestore cvx ] cvx def
368 305 M 37 0 l
0 15 m 0 -30 l
50 373 m 42 0 l
0 15 m 0 -30 l
57 209 m 49 0 l
0 15 m 0 -30 l
65 157 m 57 0 l
0 15 m 0 -30 l
73 124 m 66 0 l
0 15 m 0 -30 l
84 100 m 76 0 l
0 15 m 0 -30 l
96 94 m 88 0 l
0 15 m 0 -30 l
109 73 m 101 0 l
0 15 m 0 -30 l
125 63 m 117 0 l
0 14 m 0 -29 l
142 58 m 135 0 l
0 15 m 0 -29 l
163 44 m 155 0 l
0 15 m 0 -30 l
368 305 M -36 0 l
0 15 m 0 -30 l
123 373 m -42 0 l
0 15 m 0 -30 l
141 209 m -49 0 l
0 15 m 0 -30 l
163 157 m -57 0 l
0 15 m 0 -30 l
187 124 m -66 0 l
0 15 m 0 -30 l
216 100 m -76 0 l
0 15 m 0 -30 l
248 94 m -88 0 l
0 15 m 0 -30 l
285 73 m -102 0 l
0 15 m 0 -30 l
328 63 m -117 0 l
0 14 m 0 -29 l
376 58 m -134 0 l
0 15 m 0 -29 l
432 44 m -155 0 l
0 15 m 0 -30 l
CS [] 0 setdash M
1696 451 M B
10 -11 m 1706 461 L
1685 461 L
1685 440 L
1706 440 L
CF M
44 11 m CS M 2 100 mul 72 div dup setlinewidth
/P [ /gsave cvx 0 5 -1 roll .05 add dup -2 div 0 exch /rmoveto cvx /rlineto cvx /stroke cvx /grestore cvx ] cvx def
CS [] 0 setdash M
 0 0 0 C
1750 427 M 13 54 m 0 -54 l
3 54 m 0 -54 l
31 54 m 0 -54 l
2 54 m 0 -54 l
-43 54 m 17 0 l
16 0 m 18 0 l
-41 -25 m 31 0 l
-41 -29 m 17 0 l
16 0 m 18 0 l
33 65 m -5 -6 l
-5 -7 l
-5 -10 l
-3 -13 l
0 -11 l
3 -12 l
5 -11 l
5 -7 l
5 -6 l
-5 77 m -5 -10 l
-3 -7 l
-2 -13 l
0 -11 l
2 -12 l
3 -8 l
5 -10 l
49 48 m -28 -36 l
30 36 m -28 -36 l
0 36 m -2 -10 l
0 10 l
30 0 l
-30 -36 m 30 0 l
0 11 l
-2 -11 l
18 65 m 5 -6 l
5 -7 l
5 -10 l
3 -13 l
0 -11 l
-3 -12 l
-5 -11 l
-5 -7 l
-5 -6 l
5 77 m 5 -10 l
3 -7 l
2 -13 l
0 -11 l
-2 -12 l
-3 -8 l
-5 -10 l
 0 0 0 C
23 12 m CS [] 0 setdash M
 0 0 0 C
368 498 M 11 -11 m 0 21 l
-21 0 l
0 -21 l
21 0 l
76 372 m 10 -10 m 0 21 l
-21 0 l
0 -21 l
21 0 l
89 205 m 11 -10 m 0 21 l
-22 0 l
0 -21 l
22 0 l
103 151 m 10 -11 m 0 21 l
-21 0 l
0 -21 l
21 0 l
120 116 m 11 -11 m 0 21 l
-21 0 l
0 -21 l
21 0 l
139 89 m 11 -11 m 0 21 l
-21 0 l
0 -21 l
21 0 l
161 82 m 10 -11 m 0 21 l
-21 0 l
0 -21 l
21 0 l
187 61 m 10 -11 m 0 22 l
-21 0 l
0 -22 l
21 0 l
216 51 m 10 -11 m 0 22 l
-21 0 l
0 -22 l
21 0 l
249 47 m 11 -10 m 0 21 l
-21 0 l
0 -21 l
21 0 l
287 35 m 10 -11 m 0 21 l
-21 0 l
0 -21 l
21 0 l
CS [] 0 setdash M
CS M 3 100 mul 72 div dup setlinewidth
/P [ /gsave cvx 0 5 -1 roll .05 add dup -2 div 0 exch /rmoveto cvx /rlineto cvx /stroke cvx /grestore cvx ] cvx def
368 498 M 37 0 l
0 15 m 0 -30 l
50 376 m 42 0 l
0 15 m 0 -29 l
57 209 m 49 0 l
0 15 m 0 -30 l
65 156 m 57 0 l
0 15 m 0 -30 l
73 120 m 66 0 l
0 15 m 0 -30 l
84 93 m 76 0 l
0 14 m 0 -29 l
96 86 m 88 0 l
0 15 m 0 -30 l
109 65 m 101 0 l
0 15 m 0 -30 l
125 55 m 117 0 l
0 15 m 0 -30 l
142 51 m 135 0 l
0 15 m 0 -30 l
163 40 m 155 0 l
0 15 m 0 -30 l
368 498 M -36 0 l
0 15 m 0 -30 l
123 376 m -42 0 l
0 15 m 0 -29 l
141 209 m -49 0 l
0 15 m 0 -30 l
163 156 m -57 0 l
0 15 m 0 -30 l
187 120 m -66 0 l
0 15 m 0 -30 l
216 93 m -76 0 l
0 14 m 0 -29 l
248 86 m -88 0 l
0 15 m 0 -30 l
285 65 m -102 0 l
0 15 m 0 -30 l
328 55 m -117 0 l
0 15 m 0 -30 l
376 51 m -134 0 l
0 15 m 0 -30 l
432 40 m -155 0 l
0 15 m 0 -30 l
CS [] 0 setdash M
1696 568 M 10 -11 m 0 21 l
-21 0 l
0 -21 l
21 0 l
44 11 m CS M 2 100 mul 72 div dup setlinewidth
/P [ /gsave cvx 0 5 -1 roll .05 add dup -2 div 0 exch /rmoveto cvx /rlineto cvx /stroke cvx /grestore cvx ] cvx def
CS [] 0 setdash M
 0 0 0 C
1750 545 M 13 54 m 0 -54 l
3 54 m 0 -54 l
-10 54 m 25 0 l
8 -3 l
5 -5 l
3 -5 l
2 -8 l
0 -13 l
-2 -7 l
-3 -6 l
-5 -5 l
-8 -2 l
-25 0 l
25 54 m 5 -3 l
5 -5 l
3 -5 l
3 -8 l
0 -13 l
-3 -7 l
-3 -6 l
-5 -5 l
-5 -2 l
54 64 m -5 -5 l
-5 -8 l
-5 -10 l
-3 -13 l
0 -10 l
3 -13 l
5 -10 l
5 -8 l
5 -5 l
-5 77 m -5 -11 l
-3 -7 l
-2 -13 l
0 -10 l
2 -13 l
3 -8 l
5 -10 l
49 49 m -29 -36 l
31 36 m -28 -36 l
0 36 m -3 -11 l
0 11 l
31 0 l
-31 -36 m 31 0 l
0 10 l
-2 -10 l
18 64 m 5 -5 l
5 -8 l
5 -10 l
3 -13 l
0 -10 l
-3 -13 l
-5 -10 l
-5 -8 l
-5 -5 l
5 77 m 5 -11 l
2 -7 l
3 -13 l
0 -10 l
-3 -13 l
-2 -8 l
-5 -10 l
 0 0 0 C
23 13 m CS [] 0 setdash M
stroke
grestore
showpage
end
%%Trailer
%%EOF
